…
``` r
tbl <-
ram$timeseries %>%
  left_join(ram$stock) %>%
  left_join(ram$area) %>%
  left_join(ram$tsmetrics, by = c("tsid" = "tsunique")) %>%
  filter(scientificname == "Gadus morhua",
         country == 'Canada' | country == 'USA') %>%
  filter(tsid == "TC-MT")

  #ram$tsmetrics %>% filter(tscategory == 'CATCH or LANDINGS') %>% count(tslong)
tbl
```

    ## # A tibble: 442 x 23
    ##    assessid stockid stocklong tsid  tsyear tsvalue    tsn scientificname
    ##    <chr>    <chr>   <chr>     <chr>  <dbl>   <dbl>  <dbl> <chr>         
    ##  1 DFO-COD… COD3Ps  Atlantic… TC-MT   1980   37600 164712 Gadus morhua  
    ##  2 DFO-COD… COD3Ps  Atlantic… TC-MT   1981   38900 164712 Gadus morhua  
    ##  3 DFO-COD… COD3Ps  Atlantic… TC-MT   1982   33900 164712 Gadus morhua  
    ##  4 DFO-COD… COD3Ps  Atlantic… TC-MT   1983   38500 164712 Gadus morhua  
    ##  5 DFO-COD… COD3Ps  Atlantic… TC-MT   1984   37000 164712 Gadus morhua  
    ##  6 DFO-COD… COD3Ps  Atlantic… TC-MT   1985   51400 164712 Gadus morhua  
    ##  7 DFO-COD… COD3Ps  Atlantic… TC-MT   1986   58000 164712 Gadus morhua  
    ##  8 DFO-COD… COD3Ps  Atlantic… TC-MT   1987   59200 164712 Gadus morhua  
    ##  9 DFO-COD… COD3Ps  Atlantic… TC-MT   1988   43400 164712 Gadus morhua  
    ## 10 DFO-COD… COD3Ps  Atlantic… TC-MT   1989   39500 164712 Gadus morhua  
    ## # … with 432 more rows, and 15 more variables: commonname <chr>,
    ## #   areaid <chr>, region <chr>, inmyersdb <dbl>, myersstockid <chr>,
    ## #   country <chr>, areatype <chr>, areacode <chr>, areaname <chr>,
    ## #   alternateareaname <chr>, tscategory <chr>, tsshort <chr>,
    ## #   tslong <chr>, tsunitsshort <chr>, tsunitslong <chr>

``` r
landings_tbl <-
tbl %>%
  filter(tslong == 'Total catch (i.e. landings + discards. Add landings + discards to get this).')
landings_tbl
```

    ## # A tibble: 442 x 23
    ##    assessid stockid stocklong tsid  tsyear tsvalue    tsn scientificname
    ##    <chr>    <chr>   <chr>     <chr>  <dbl>   <dbl>  <dbl> <chr>         
    ##  1 DFO-COD… COD3Ps  Atlantic… TC-MT   1980   37600 164712 Gadus morhua  
    ##  2 DFO-COD… COD3Ps  Atlantic… TC-MT   1981   38900 164712 Gadus morhua  
    ##  3 DFO-COD… COD3Ps  Atlantic… TC-MT   1982   33900 164712 Gadus morhua  
    ##  4 DFO-COD… COD3Ps  Atlantic… TC-MT   1983   38500 164712 Gadus morhua  
    ##  5 DFO-COD… COD3Ps  Atlantic… TC-MT   1984   37000 164712 Gadus morhua  
    ##  6 DFO-COD… COD3Ps  Atlantic… TC-MT   1985   51400 164712 Gadus morhua  
    ##  7 DFO-COD… COD3Ps  Atlantic… TC-MT   1986   58000 164712 Gadus morhua  
    ##  8 DFO-COD… COD3Ps  Atlantic… TC-MT   1987   59200 164712 Gadus morhua  
    ##  9 DFO-COD… COD3Ps  Atlantic… TC-MT   1988   43400 164712 Gadus morhua  
    ## 10 DFO-COD… COD3Ps  Atlantic… TC-MT   1989   39500 164712 Gadus morhua  
    ## # … with 432 more rows, and 15 more variables: commonname <chr>,
    ## #   areaid <chr>, region <chr>, inmyersdb <dbl>, myersstockid <chr>,
    ## #   country <chr>, areatype <chr>, areacode <chr>, areaname <chr>,
    ## #   alternateareaname <chr>, tscategory <chr>, tsshort <chr>,
    ## #   tslong <chr>, tsunitsshort <chr>, tsunitslong <chr>
…
``` r
collapsed_tbl <- grouped %>%
  mutate(max=cummax(x=sum)) %>%
  mutate(collapsed = 10*max) %>%
  mutate(iscollapsed= collapsed>sum)
collapsed_tbl
```

    ## # A tibble: 165 x 5
    ##    tsyear    sum    max collapsed iscollapsed
    ##     <dbl>  <dbl>  <dbl>     <dbl> <lgl>      
    ##  1   1850 133000 133000   1330000 TRUE       
    ##  2   1851 125000 133000   1330000 TRUE       
    ##  3   1852 120000 133000   1330000 TRUE       
    ##  4   1853 117000 133000   1330000 TRUE       
    ##  5   1854 104000 133000   1330000 TRUE       
    ##  6   1855 132000 133000   1330000 TRUE       
    ##  7   1856 151000 151000   1510000 TRUE       
    ##  8   1857 169000 169000   1690000 TRUE       
    ##  9   1858 134000 169000   1690000 TRUE       
    ## 10   1859 154000 169000   1690000 TRUE       
    ## # … with 155 more rows
``` r
grouped <- filter(grouped, tsyear > 1950)


collapse_by_year <- grouped %>%
  mutate(max=cummax(x=sum)) %>%
  mutate(collapsed = 10*max) %>%
  mutate(iscollapsed= collapsed>sum)  %>%
  group_by(tsyear)
   

collapse_by_year
```

    ## # A tibble: 64 x 5
    ## # Groups:   tsyear [64]
    ##    tsyear    sum    max collapsed iscollapsed
    ##     <dbl>  <dbl>  <dbl>     <dbl> <lgl>      
    ##  1   1951 272000 272000   2720000 TRUE       
    ##  2   1952 265000 272000   2720000 TRUE       
    ##  3   1953 251100 272000   2720000 TRUE       
    ##  4   1954 318400 318400   3184000 TRUE       
    ##  5   1955 282400 318400   3184000 TRUE       
    ##  6   1956 315800 318400   3184000 TRUE       
    ##  7   1957 292600 318400   3184000 TRUE       
    ##  8   1958 270700 318400   3184000 TRUE       
    ##  9   1959 438900 438900   4389000 TRUE       
    ## 10   1960 521700 521700   5217000 TRUE       
    ## # … with 54 more rows
…
